module github.com/stas727/gbot

go 1.20

require (
	github.com/joho/godotenv v1.5.1
	github.com/sashabaranov/go-openai v1.20.4
	github.com/spf13/cobra v1.8.0
	gopkg.in/telebot.v3 v3.2.1
)

require (
	github.com/inconshreveable/mousetrap v1.1.0 // indirect
	github.com/spf13/pflag v1.0.5 // indirect
)
